%YAML 1.1
%TAG !u! tag:unity3d.com,2011:
--- !u!21 &2100000
Material:
  serializedVersion: 6
  m_ObjectHideFlags: 0
  m_PrefabParentObject: {fileID: 0}
  m_PrefabInternal: {fileID: 0}
  m_Name: Water4Advanced
  m_Shader: {fileID: 4800000, guid: 475c4a4e617a8401b84ca7b32c7cc460, type: 3}
  m_ShaderKeywords: 
  m_LightmapFlags: 5
  m_CustomRenderQueue: -1
  stringTagMap: {}
  m_SavedProperties:
    serializedVersion: 2
    m_TexEnvs:
      data:
        first:
          name: _MainTex
        second:
          m_Texture: {fileID: 2800000, guid: e6f8288974c664a309d6c66de636978c, type: 3}
          m_Scale: {x: 1, y: 1}
          m_Offset: {x: 1, y: 1}
      data:
        first:
          name: _BumpMap
        second:
          m_Texture: {fileID: 2800000, guid: fb6566c21f717904f83743a5a76dd0b0, type: 3}
          m_Scale: {x: 1, y: 1}
          m_Offset: {x: 0, y: 0}
      data:
        first:
          name: _DecalTex
        second:
          m_Texture: {fileID: 0}
          m_Scale: {x: 1, y: 1}
          m_Offset: {x: 0, y: 0}
      data:
        first:
          name: _ReflectionTex
        second:
          m_Texture: {fileID: 0}
          m_Scale: {x: 1, y: 1}
          m_Offset: {x: 0, y: 0}
      data:
        first:
          name: _ShoreTex
        second:
          m_Texture: {fileID: 2800000, guid: 36dd0b22da8874ed38075789055ca664, type: 3}
          m_Scale: {x: 1, y: 1}
          m_Offset: {x: 1, y: 1}
      data:
        first:
          name: _RefractionTex
        second:
          m_Texture: {fileID: 0}
          m_Scale: {x: 1, y: 1}
          m_Offset: {x: 0, y: 0}
      data:
        first:
          name: _WavesTex
        second:
          m_Texture: {fileID: 0}
          m_Scale: {x: 1, y: 1}
          m_Offset: {x: 0, y: 0}
      data:
        first:
          name: _DisplacementHeightMap
        second:
          m_Texture: {fileID: 2800000, guid: a782b26d6436b48d9882906b9f8ca31a, type: 2}
          m_Scale: {x: 1, y: 1}
          m_Offset: {x: 0, y: 0}
      data:
        first:
          name: _SecondDisplacementHeightMap
        second:
          m_Texture: {fileID: 2800000, guid: 4facc21e08e3a43ed97c930f7dae6e7b, type: 2}
          m_Scale: {x: 1, y: 1}
          m_Offset: {x: 0, y: 0}
      data:
        first:
          name: _ThirdDisplacementHeightMap
        second:
          m_Texture: {fileID: 2800000, guid: dc30b984e8e3c4cdfb38d5fceb411602, type: 2}
          m_Scale: {x: 1, y: 1}
          m_Offset: {x: 0, y: 0}
      data:
        first:
          name: _Fresnel
        second:
          m_Texture: {fileID: 2800000, guid: 5b5c5575fd4c74abd9f7b30862fb76a3, type: 3}
          m_Scale: {x: 1, y: 1}
          m_Offset: {x: 0, y: 0}
      data:
        first:
          name: _ReflectiveColor
        second:
          m_Texture: {fileID: 2800000, guid: 17680dc3bf8f74b498b01cf1481e2593, type: 3}
          m_Scale: {x: 1, y: 1}
          m_Offset: {x: 0, y: 0}
      data:
        first:
          name: _ReflectiveColorCube
        second:
          m_Texture: {fileID: 8900000, guid: 0620bdf0302d84423be4aa15b82a0e11, type: 2}
          m_Scale: {x: 0.15, y: 0.1}
          m_Offset: {x: 0, y: 0}
      data:
        first:
          name: _SpecialWavesTex
        second:
          m_Texture: {fileID: 0}
          m_Scale: {x: 1, y: 1}
          m_Offset: {x: 0, y: 0}
      data:
        first:
          name: _DepthMap
        second:
          m_Texture: {fileID: 2800000, guid: ff6e0fbcfc24e4f95a2711ea0e73dd6a, type: 3}
          m_Scale: {x: 0.014, y: 0.014}
          m_Offset: {x: 0, y: 0}
      data:
        first:
          name: _WaterHolesTex
        second:
          m_Texture: {fileID: 0}
          m_Scale: {x: 1, y: 1}
          m_Offset: {x: 0, y: 0}
      data:
        first:
          name: _Caustics
        second:
          m_Texture: {fileID: 2800000, guid: eb9e91ee4c264b942a46baeec92ca0a4, type: 3}
          m_Scale: {x: 1, y: 1}
          m_Offset: {x: 0, y: 0}
      data:
        first:
          name: m_DisplacementHeightMap
        second:
          m_Texture: {fileID: 0}
          m_Scale: {x: 1, y: 1}
          m_Offset: {x: 0, y: 0}
      data:
        first:
          name: m_SecondDisplacementHeightMap
        second:
          m_Texture: {fileID: 0}
          m_Scale: {x: 1, y: 1}
          m_Offset: {x: 0, y: 0}
      data:
        first:
          name: _HeightMask
        second:
          m_Texture: {fileID: 2800000, guid: cff6f2c02e93742c095cd0c69d3d92ce, type: 3}
          m_Scale: {x: 1, y: 1}
          m_Offset: {x: 0, y: 0}
    m_Floats:
      data:
        first:
          name: _Shininess
        second: 313.21838
      data:
        first:
          name: _InvFade
        second: 0.628783
      data:
        first:
          name: _FresnelScale
        second: 0.6571428
      data:
        first:
          name: _GerstnerIntensity
        second: 1.6714286
      data:
        first:
          name: _HeightDisplacement
        second: 3.2722514
      data:
        first:
          name: _NormalsDisplacement
        second: 0
      data:
        first:
          name: _WaveScale
        second: 0.046289656
      data:
        first:
          name: _ReflDistort
        second: 0.9267696
      data:
        first:
          name: _RefrDistort
        second: 1.4393286
      data:
        first:
          name: _Displacement
        second: 0.27863377
      data:
        first:
          name: _ShoreTiling
        second: 56.862743
      data:
        first:
          name: _FresnelPower
        second: 1.7931035
      data:
        first:
          name: _FadeExp
        second: 0.91503274
      data:
        first:
          name: _InvFadeFoam
        second: 0.1217
      data:
        first:
          name: _WaveFoamDistort
        second: 0.27931035
      data:
        first:
          name: _InvFadeDepthFade
        second: 0.07197756
      data:
        first:
          name: _FoamWaveDependency
        second: 0.10205479
      data:
        first:
          name: _WaveCapsAmount
        second: 0.18275861
      data:
        first:
          name: _Speed
        second: 0.4137931
      data:
        first:
          name: _DisplacementTiling
        second: 18.586807
      data:
        first:
          name: _Ambient
        second: 1
      data:
        first:
          name: _WaterDepth
        second: 40.98077
    m_Colors:
      data:
        first:
          name: _Color
        second: {r: 1, g: 1, b: 1, a: 1}
      data:
        first:
          name: _MainTex_ST
        second: {r: 1, g: 1, b: 0, a: 0}
      data:
        first:
          name: _BumpMap_ST
        second: {r: 1, g: 1, b: 0, a: 0}
      data:
        first:
          name: _ReflectionTex_ST
        second: {r: 1, g: 1, b: 0, a: 0}
      data:
        first:
          name: _DistortParams
        second: {r: 1.4399999, g: 0.24285714, b: 1.8530641, a: -0.53142846}
      data:
        first:
          name: _InvFadeParemeter
        second: {r: 0.21896552, g: 0.15944828, b: 0.04310345, a: 0}
      data:
        first:
          name: _AnimationTiling
        second: {r: 0.04582553, g: 0.0182, b: 0.045714468, a: 0.027129691}
      data:
        first:
          name: _AnimationDirection
        second: {r: 2, g: 4, b: 2, a: -1}
      data:
        first:
          name: _BumpTiling
        second: {r: 0.12, g: 0.07, b: 0.08, a: 0.06}
      data:
        first:
          name: _BumpDirection
        second: {r: 40, g: 40, b: 40, a: -40}
      data:
        first:
          name: _BaseColor
        second: {r: 0.15370905, g: 0.26813015, b: 0.29850745, a: 0.82}
      data:
        first:
          name: _ReflectionColor
        second: {r: 0.5794164, g: 0.6849238, b: 0.76119405, a: 0.43137255}
      data:
        first:
          name: _SpecularColor
        second: {r: 0.91791046, g: 0.91791046, b: 0.91791046, a: 1}
      data:
        first:
          name: _WorldLightDir
        second: {r: -0.030375138, g: -0.20139083, b: -0.97903997, a: 0}
      data:
        first:
          name: _Foam
        second: {r: 0.42666668, g: 0.48666668, b: 0, a: 0}
      data:
        first:
          name: _GAmplitude
        second: {r: 0.14, g: 0.76, b: 0.175, a: 0.225}
      data:
        first:
          name: _GFrequency
        second: {r: 0.5, g: 0.38, b: 0.59, a: 0.6}
      data:
        first:
          name: _GSteepness
        second: {r: 7, g: 2, b: 6, a: 2}
      data:
        first:
          name: _GSpeed
        second: {r: -3, g: 2, b: 1, a: 3}
      data:
        first:
          name: _GDirectionAB
        second: {r: 0.46914357, g: 0.35405126, b: -0.2, a: 0.1}
      data:
        first:
          name: _GDirectionCD
        second: {r: 0.7033888, g: -0.6799999, b: 0.7175735, a: -0.2}
      data:
        first:
          name: _DepthColor
        second: {r: 0.027511697, g: 0.14179105, b: 0.13226777, a: 0.4627451}
      data:
        first:
          name: _RefractionFog
        second: {r: 0.50543475, g: 0.50543475, b: 0.50543475, a: 0.5}
      data:
        first:
          name: _RefractionTex_ST
        second: {r: 1, g: 1, b: 0, a: 0}
      data:
        first:
          name: _Displacement
        second: {r: 6.6371665, g: 20.353983, b: -1, a: -0.681416}
      data:
        first:
          name: _ShoreTiling
        second: {r: 1, g: 1, b: 0.1, a: 0.1}
      data:
        first:
          name: _RefrColor
        second: {r: 0.5233905, g: 0.9477612, b: 0.9121496, a: 1}
      data:
        first:
          name: _Fresnel_ST
        second: {r: 1, g: 1, b: 0, a: 0}
      data:
        first:
          name: WaveSpeed
        second: {r: 1.086165, g: 4.440575, b: 12.105146, a: -3.0206447}
      data:
        first:
          name: _ReflectiveColor_ST
        second: {r: 1, g: 1, b: 0, a: 0}
      data:
        first:
          name: _HorizonColor
        second: {r: 0.052907113, g: 0.24486735, b: 0.2835821, a: 1}
      data:
        first:
          name: _ReflectiveColorCube_ST
        second: {r: 1, g: 1, b: 0, a: 0}
      data:
        first:
          name: _WaveScale4
        second: {r: 0.1, g: 0.1, b: 0.01, a: 0.01}
      data:
        first:
          name: _WaveOffset
        second: {r: 1, g: 1, b: -0.01, a: -0.01}
      data:
        first:
          name: _DisplacementXz
        second: {r: 0.6499999, g: -2.9203715, b: 1.6599998, a: -3.9363046}
      data:
        first:
          name: _RefrColorDepth
        second: {r: 0.050066825, g: 0.23134327, b: 0.17049524, a: 1}
      data:
        first:
          name: _UnderwaterColor
        second: {r: 0.6950323, g: 0.89552236, b: 0.7502397, a: 1}
      data:
        first:
          name: _FoamWaveParams
        second: {r: 0, g: 0.24918434, b: 3.3395782, a: 1}
      data:
        first:
          name: _ShoreColor
        second: {r: 1, g: 1, b: 1, a: 1}
      data:
        first:
          name: _ShorePerturbation
        second: {r: 0, g: 0, b: 0, a: 0}
      data:
        first:
          name: _DepthColorFade
        second: {r: 0.8880597, g: 0.27834705, b: 0.44463244, a: 0.22352941}
      data:
        first:
          name: _Extinction
        second: {r: 4.5, g: 75, b: 300, a: 1}
--- !u!1002 &2100001
EditorExtensionImpl:
  serializedVersion: 6
